<?xml version="1.0" encoding="UTF-8"?><svg xmlns="http://www.w3.org/2000/svg" xmlns:xlink="http://www.w3.org/1999/xlink" stroke-dasharray="none" shape-rendering="auto" font-family="'Dialog'" width="877" text-rendering="auto" fill-opacity="1" contentScriptType="text/ecmascript" color-interpolation="auto" color-rendering="auto" preserveAspectRatio="xMidYMid meet" font-size="12" viewBox="0 0 877 777" fill="black" stroke="black" image-rendering="auto" stroke-miterlimit="10" zoomAndPan="magnify" version="1.0" stroke-linecap="square" stroke-linejoin="miter" contentStyleType="text/css" font-style="normal" height="777" stroke-width="1" stroke-dashoffset="0" font-weight="normal" stroke-opacity="1">
    <!--Generated by the Batik Graphics2D SVG Generator-->
    <defs id="genericDefs"/>
    <g>
        <defs id="defs1">
            <linearGradient x1="10" x2="10" y1="10" gradientUnits="userSpaceOnUse" y2="767" xlink:type="simple" xlink:actuate="onLoad" id="linearGradient1" xlink:show="other" spreadMethod="pad">
                <stop stop-opacity="1" stop-color="white" offset="0%"/>
                <stop stop-opacity="1" stop-color="white" offset="100%"/>
            </linearGradient>
            <clipPath clipPathUnits="userSpaceOnUse" id="clipPath1">
                <path d="M17.5 10 C15.5117 10 13.6016 10.7891 12.1953 12.1953 C10.7891 13.6016 10 15.5117 10 17.5 L10 758.5 C10 760.4883 10.7891 762.3984 12.1953 763.8047 C13.6016 765.2109 15.5117 766 17.5 766 L858.5 766 C860.4883 766 862.3984 765.2109 863.8047 763.8047 C865.2109 762.3984 866 760.4883 866 758.5 L866 17.5 C866 15.5117 865.2109 13.6016 863.8047 12.1953 C862.3984 10.7891 860.4883 10 858.5 10 Z"/>
            </clipPath>
            <clipPath clipPathUnits="userSpaceOnUse" id="clipPath2">
                <path d="M9 9 L75 9 L75 27 L9 27 L9 9 Z"/>
            </clipPath>
            <clipPath clipPathUnits="userSpaceOnUse" id="clipPath3">
                <path d="M9 9 L868 9 L868 768 L9 768 L9 9 Z"/>
            </clipPath>
        </defs>
        <g font-size="14" fill="url(#linearGradient1)" font-family="'Ubuntu'" stroke-linejoin="round" stroke="url(#linearGradient1)" stroke-width="0" stroke-miterlimit="0">
            <rect x="10" y="10" clip-path="url(#clipPath1)" width="857" height="757" stroke="none"/>
            <text x="10" y="23" clip-path="url(#clipPath2)" fill="black" stroke="none" xml:space="preserve">Scenario  </text>
        </g>
        <g stroke-linecap="butt" font-size="14" fill="rgb(176,176,176)" font-family="'Ubuntu'" stroke="rgb(176,176,176)" stroke-width="1.1">
            <rect x="10" y="10" clip-path="url(#clipPath3)" fill="none" width="856" rx="7.5" ry="7.5" height="756"/>
        </g>
    </g>
    <rect x="10" y="10" fill-opacity="0" width="857" id="Scenario" height="757" stroke-opacity="0"/>
</svg>
